{
  "results": [
    {
      "id": 5184,
      "name": "23&co.",
      "category": "bakery",
      "address": "60 Brock St, Kingston, ON K7L 1R9, Canada",
      "latitude": 44.230429799999996,
      "longitude": -76.4818368,
      "phone": "+1 613-544-2344",
      "website": "https://23andco.ca/",
      "hours": "{\"openNow\": false, \"periods\": [{\"open\": {\"day\": 0, \"hour\": 10, \"minute\": 0}, \"close\": {\"day\": 0, \"hour\": 16, \"minute\": 0}}, {\"open\": {\"day\": 2, \"hour\": 10, \"minute\": 0}, \"close\": {\"day\": 2, \"hour\": 18, \"minute\": 0}}, {\"open\": {\"day\": 3, \"hour\": 10, \"minute\": 0}, \"close\": {\"day\": 3, \"hour\": 18, \"minute\": 0}}, {\"open\": {\"day\": 4, \"hour\": 10, \"minute\": 0}, \"close\": {\"day\": 4, \"hour\": 18, \"minute\": 0}}, {\"open\": {\"day\": 5, \"hour\": 10, \"minute\": 0}, \"close\": {\"day\": 5, \"hour\": 18, \"minute\": 0}}, {\"open\": {\"day\": 6, \"hour\": 10, \"minute\": 0}, \"close\": {\"day\": 6, \"hour\": 18, \"minute\": 0}}], \"weekdayDescriptions\": [\"Monday: Closed\", \"Tuesday: 10:00 AM – 6:00 PM\", \"Wednesday: 10:00 AM – 6:00 PM\", \"Thursday: 10:00 AM – 6:00 PM\", \"Friday: 10:00 AM – 6:00 PM\", \"Saturday: 10:00 AM – 6:00 PM\", \"Sunday: 10:00 AM – 4:00 PM\"], \"nextOpenTime\": \"2026-01-15T15:00:00Z\"}",
      "last_verified": "2026-01-15T04:33:16.334043+00:00"
    },
    {
      "id": 5176,
      "name": "A&W",
      "category": "hamburger_restaurant",
      "address": "328 King St E #101, Kingston, ON K7L 3B4, Canada",
      "latitude": 44.23036200000001,
      "longitude": -76.481583,
      "phone": "+1 613-766-0786",
      "website": "https://web.aw.ca/",
      "hours": "{\"openNow\": true, \"periods\": [{\"open\": {\"day\": 0, \"hour\": 0, \"minute\": 0}}], \"weekdayDescriptions\": [\"Monday: Open 24 hours\", \"Tuesday: Open 24 hours\", \"Wednesday: Open 24 hours\", \"Thursday: Open 24 hours\", \"Friday: Open 24 hours\", \"Saturday: Open 24 hours\", \"Sunday: Open 24 hours\"]}",
      "last_verified": "2026-01-15T04:33:16.334043+00:00"
    },
    {
      "id": 5208,
      "name": "Ali Baba Kabab",
      "category": "restaurant",
      "address": "569 Princess St, Kingston, ON K7L 1C8, Canada",
      "latitude": 44.2359262,
      "longitude": -76.49877529999999,
      "phone": "+1 613-531-9999",
      "website": "https://alibabakabab.ca/",
      "hours": "{\"openNow\": true, \"periods\": [{\"open\": {\"day\": 0, \"hour\": 11, \"minute\": 0}, \"close\": {\"day\": 1, \"hour\": 5, \"minute\": 0}}, {\"open\": {\"day\": 1, \"hour\": 11, \"minute\": 0}, \"close\": {\"day\": 2, \"hour\": 5, \"minute\": 0}}, {\"open\": {\"day\": 2, \"hour\": 11, \"minute\": 0}, \"close\": {\"day\": 3, \"hour\": 5, \"minute\": 0}}, {\"open\": {\"day\": 3, \"hour\": 11, \"minute\": 0}, \"close\": {\"day\": 4, \"hour\": 5, \"minute\": 0}}, {\"open\": {\"day\": 4, \"hour\": 11, \"minute\": 0}, \"close\": {\"day\": 5, \"hour\": 5, \"minute\": 0}}, {\"open\": {\"day\": 5, \"hour\": 11, \"minute\": 0}, \"close\": {\"day\": 6, \"hour\": 5, \"minute\": 0}}, {\"open\": {\"day\": 6, \"hour\": 11, \"minute\": 0}, \"close\": {\"day\": 0, \"hour\": 5, \"minute\": 0}}], \"weekdayDescriptions\": [\"Monday: 11:00 AM – 5:00 AM\", \"Tuesday: 11:00 AM – 5:00 AM\", \"Wednesday: 11:00 AM – 5:00 AM\", \"Thursday: 11:00 AM – 5:00 AM\", \"Friday: 11:00 AM – 5:00 AM\", \"Saturday: 11:00 AM – 5:00 AM\", \"Sunday: 11:00 AM – 5:00 AM\"], \"nextCloseTime\": \"2026-01-15T10:00:00Z\"}",
      "last_verified": "2026-01-15T04:33:16.334043+00:00"
    },
    {
      "id": 5190,
      "name": "AllerGlee: Allergy Friendly Baking",
      "category": "bakery",
      "address": "Strathcona Park Neighborhood, Kingston, ON K7M 6N7, Canada",
      "latitude": 44.2561682,
      "longitude": -76.5246329,
      "phone": null,
      "website": "http://allerglee.com/",
      "hours": "{\"openNow\": false, \"periods\": [{\"open\": {\"day\": 1, \"hour\": 11, \"minute\": 0}, \"close\": {\"day\": 1, \"hour\": 17, \"minute\": 0}}, {\"open\": {\"day\": 2, \"hour\": 9, \"minute\": 30}, \"close\": {\"day\": 2, \"hour\": 17, \"minute\": 0}}, {\"open\": {\"day\": 3, \"hour\": 9, \"minute\": 30}, \"close\": {\"day\": 3, \"hour\": 17, \"minute\": 0}}, {\"open\": {\"day\": 4, \"hour\": 9, \"minute\": 30}, \"close\": {\"day\": 4, \"hour\": 17, \"minute\": 0}}, {\"open\": {\"day\": 5, \"hour\": 9, \"minute\": 30}, \"close\": {\"day\": 5, \"hour\": 17, \"minute\": 0}}], \"weekdayDescriptions\": [\"Monday: 11:00 AM – 5:00 PM\", \"Tuesday: 9:30 AM – 5:00 PM\", \"Wednesday: 9:30 AM – 5:00 PM\", \"Thursday: 9:30 AM – 5:00 PM\", \"Friday: 9:30 AM – 5:00 PM\", \"Saturday: Closed\", \"Sunday: Closed\"], \"nextOpenTime\": \"2026-01-15T14:30:00Z\"}",
      "last_verified": "2026-01-15T04:33:16.334043+00:00"
    },
    {
      "id": 5168,
      "name": "Big Smoke Burger",
      "category": "hamburger_restaurant",
      "address": "505 Princess St, Kingston, ON K7L 1C5, Canada",
      "latitude": 44.234958,
      "longitude": -76.49627100000001,
      "phone": "+1 613-542-6298",
      "website": "https://bigsmokeburger.com/stores/kingston/?utm_source=G&utm_medium=LPM&utm_campaign=MTY",
      "hours": "{\"openNow\": true, \"periods\": [{\"open\": {\"day\": 0, \"hour\": 11, \"minute\": 0}, \"close\": {\"day\": 1, \"hour\": 0, \"minute\": 0}}, {\"open\": {\"day\": 1, \"hour\": 11, \"minute\": 0}, \"close\": {\"day\": 2, \"hour\": 0, \"minute\": 0}}, {\"open\": {\"day\": 2, \"hour\": 11, \"minute\": 0}, \"close\": {\"day\": 3, \"hour\": 0, \"minute\": 0}}, {\"open\": {\"day\": 3, \"hour\": 11, \"minute\": 0}, \"close\": {\"day\": 4, \"hour\": 0, \"minute\": 0}}, {\"open\": {\"day\": 4, \"hour\": 11, \"minute\": 0}, \"close\": {\"day\": 5, \"hour\": 0, \"minute\": 0}}, {\"open\": {\"day\": 5, \"hour\": 11, \"minute\": 0}, \"close\": {\"day\": 6, \"hour\": 0, \"minute\": 0}}, {\"open\": {\"day\": 6, \"hour\": 11, \"minute\": 0}, \"close\": {\"day\": 0, \"hour\": 0, \"minute\": 0}}], \"weekdayDescriptions\": [\"Monday: 11:00 AM – 12:00 AM\", \"Tuesday: 11:00 AM – 12:00 AM\", \"Wednesday: 11:00 AM – 12:00 AM\", \"Thursday: 11:00 AM – 12:00 AM\", \"Friday: 11:00 AM – 12:00 AM\", \"Saturday: 11:00 AM – 12:00 AM\", \"Sunday: 11:00 AM – 12:00 AM\"], \"nextCloseTime\": \"2026-01-15T05:00:00Z\"}",
      "last_verified": "2026-01-15T04:33:16.332036+00:00"
    },
    {
      "id": 5210,
      "name": "Black Dog Tavern",
      "category": "restaurant",
      "address": "69 Brock St, Kingston, ON K7L 1R8, Canada",
      "latitude": 44.2308387,
      "longitude": -76.4819717,
      "phone": "+1 613-549-5635",
      "website": "http://www.bdtavern.com/",
      "hours": "{\"openNow\": false, \"periods\": [{\"open\": {\"day\": 0, \"hour\": 11, \"minute\": 0}, \"close\": {\"day\": 0, \"hour\": 21, \"minute\": 0}}, {\"open\": {\"day\": 1, \"hour\": 16, \"minute\": 0}, \"close\": {\"day\": 1, \"hour\": 21, \"minute\": 0}}, {\"open\": {\"day\": 2, \"hour\": 16, \"minute\": 0}, \"close\": {\"day\": 2, \"hour\": 21, \"minute\": 0}}, {\"open\": {\"day\": 3, \"hour\": 16, \"minute\": 0}, \"close\": {\"day\": 3, \"hour\": 21, \"minute\": 0}}, {\"open\": {\"day\": 4, \"hour\": 16, \"minute\": 0}, \"close\": {\"day\": 4, \"hour\": 21, \"minute\": 0}}, {\"open\": {\"day\": 5, \"hour\": 11, \"minute\": 30}, \"close\": {\"day\": 5, \"hour\": 22, \"minute\": 0}}, {\"open\": {\"day\": 6, \"hour\": 11, \"minute\": 0}, \"close\": {\"day\": 6, \"hour\": 22, \"minute\": 0}}], \"weekdayDescriptions\": [\"Monday: 4:00 – 9:00 PM\", \"Tuesday: 4:00 – 9:00 PM\", \"Wednesday: 4:00 – 9:00 PM\", \"Thursday: 4:00 – 9:00 PM\", \"Friday: 11:30 AM – 10:00 PM\", \"Saturday: 11:00 AM – 10:00 PM\", \"Sunday: 11:00 AM – 9:00 PM\"], \"nextOpenTime\": \"2026-01-15T21:00:00Z\"}",
      "last_verified": "2026-01-15T04:33:16.334043+00:00"
    },
    {
      "id": 5186,
      "name": "Bread & Butter Bakery",
      "category": "bakery",
      "address": "1530 Bath Rd, Kingston, ON K7M 4X6, Canada",
      "latitude": 44.2374571,
      "longitude": -76.55890579999999,
      "phone": "+1 613-384-3675",
      "website": "http://www.breadandbutter.ca/",
      "hours": "{\"openNow\": false, \"periods\": [{\"open\": {\"day\": 0, \"hour\": 8, \"minute\": 0}, \"close\": {\"day\": 0, \"hour\": 15, \"minute\": 0}}, {\"open\": {\"day\": 3, \"hour\": 8, \"minute\": 0}, \"close\": {\"day\": 3, \"hour\": 17, \"minute\": 0}}, {\"open\": {\"day\": 4, \"hour\": 8, \"minute\": 0}, \"close\": {\"day\": 4, \"hour\": 17, \"minute\": 0}}, {\"open\": {\"day\": 5, \"hour\": 8, \"minute\": 0}, \"close\": {\"day\": 5, \"hour\": 17, \"minute\": 0}}, {\"open\": {\"day\": 6, \"hour\": 8, \"minute\": 0}, \"close\": {\"day\": 6, \"hour\": 16, \"minute\": 0}}], \"weekdayDescriptions\": [\"Monday: Closed\", \"Tuesday: Closed\", \"Wednesday: 8:00 AM – 5:00 PM\", \"Thursday: 8:00 AM – 5:00 PM\", \"Friday: 8:00 AM – 5:00 PM\", \"Saturday: 8:00 AM – 4:00 PM\", \"Sunday: 8:00 AM – 3:00 PM\"], \"nextOpenTime\": \"2026-01-15T13:00:00Z\"}",
      "last_verified": "2026-01-15T04:33:16.334043+00:00"
    },
    {
      "id": 5192,
      "name": "Bread-Man & Catering",
      "category": "bakery",
      "address": "1296 Bath Rd, Kingston, ON K7M 4X3, Canada",
      "latitude": 44.2392032,
      "longitude": -76.5436048,
      "phone": "+1 613-549-7644",
      "website": "https://www.facebook.com/Bread-Man-Catering-176617722403183/",
      "hours": "{\"openNow\": false, \"periods\": [{\"open\": {\"day\": 1, \"hour\": 7, \"minute\": 0}, \"close\": {\"day\": 1, \"hour\": 18, \"minute\": 0}}, {\"open\": {\"day\": 2, \"hour\": 7, \"minute\": 0}, \"close\": {\"day\": 2, \"hour\": 18, \"minute\": 0}}, {\"open\": {\"day\": 3, \"hour\": 7, \"minute\": 0}, \"close\": {\"day\": 3, \"hour\": 18, \"minute\": 0}}, {\"open\": {\"day\": 4, \"hour\": 7, \"minute\": 0}, \"close\": {\"day\": 4, \"hour\": 18, \"minute\": 0}}, {\"open\": {\"day\": 5, \"hour\": 7, \"minute\": 0}, \"close\": {\"day\": 5, \"hour\": 18, \"minute\": 0}}], \"weekdayDescriptions\": [\"Monday: 7:00 AM – 6:00 PM\", \"Tuesday: 7:00 AM – 6:00 PM\", \"Wednesday: 7:00 AM – 6:00 PM\", \"Thursday: 7:00 AM – 6:00 PM\", \"Friday: 7:00 AM – 6:00 PM\", \"Saturday: Closed\", \"Sunday: Closed\"], \"nextOpenTime\": \"2026-01-15T12:00:00Z\"}",
      "last_verified": "2026-01-15T04:33:16.334043+00:00"
    },
    {
      "id": 5167,
      "name": "Bubbas Pizzeria",
      "category": "pizza_restaurant",
      "address": "401 Princess St, Kingston, ON K7L 5C9, Canada",
      "latitude": 44.2333662,
      "longitude": -76.49237889999999,
      "phone": "+1 613-549-5425",
      "website": "https://www.bubbaspizzeria.com/",
      "hours": "{\"openNow\": true, \"periods\": [{\"open\": {\"day\": 0, \"hour\": 11, \"minute\": 30}, \"close\": {\"day\": 1, \"hour\": 2, \"minute\": 30}}, {\"open\": {\"day\": 1, \"hour\": 11, \"minute\": 30}, \"close\": {\"day\": 2, \"hour\": 1, \"minute\": 30}}, {\"open\": {\"day\": 2, \"hour\": 11, \"minute\": 30}, \"close\": {\"day\": 3, \"hour\": 2, \"minute\": 30}}, {\"open\": {\"day\": 3, \"hour\": 11, \"minute\": 30}, \"close\": {\"day\": 4, \"hour\": 1, \"minute\": 30}}, {\"open\": {\"day\": 4, \"hour\": 11, \"minute\": 30}, \"close\": {\"day\": 5, \"hour\": 3, \"minute\": 0}}, {\"open\": {\"day\": 5, \"hour\": 11, \"minute\": 30}, \"close\": {\"day\": 6, \"hour\": 3, \"minute\": 30}}, {\"open\": {\"day\": 6, \"hour\": 11, \"minute\": 30}, \"close\": {\"day\": 0, \"hour\": 3, \"minute\": 30}}], \"weekdayDescriptions\": [\"Monday: 11:30 AM – 1:30 AM\", \"Tuesday: 11:30 AM – 2:30 AM\", \"Wednesday: 11:30 AM – 1:30 AM\", \"Thursday: 11:30 AM – 3:00 AM\", \"Friday: 11:30 AM – 3:30 AM\", \"Saturday: 11:30 AM – 3:30 AM\", \"Sunday: 11:30 AM – 2:30 AM\"], \"nextCloseTime\": \"2026-01-15T06:30:00Z\"}",
      "last_verified": "2026-01-15T04:33:16.332036+00:00"
    },
    {
      "id": 5173,
      "name": "Burger King",
      "category": "restaurant",
      "address": "400 Princess St, Kingston, ON K7L 1B8, Canada",
      "latitude": 44.2329813,
      "longitude": -76.4924339,
      "phone": "+1 613-531-8596",
      "website": "https://www.burgerking.ca/",
      "hours": "{\"openNow\": true, \"periods\": [{\"open\": {\"day\": 0, \"hour\": 10, \"minute\": 30}, \"close\": {\"day\": 1, \"hour\": 1, \"minute\": 0}}, {\"open\": {\"day\": 1, \"hour\": 10, \"minute\": 30}, \"close\": {\"day\": 2, \"hour\": 1, \"minute\": 0}}, {\"open\": {\"day\": 2, \"hour\": 10, \"minute\": 30}, \"close\": {\"day\": 3, \"hour\": 1, \"minute\": 0}}, {\"open\": {\"day\": 3, \"hour\": 10, \"minute\": 30}, \"close\": {\"day\": 4, \"hour\": 1, \"minute\": 0}}, {\"open\": {\"day\": 4, \"hour\": 10, \"minute\": 30}, \"close\": {\"day\": 5, \"hour\": 1, \"minute\": 0}}, {\"open\": {\"day\": 5, \"hour\": 10, \"minute\": 30}, \"close\": {\"day\": 6, \"hour\": 2, \"minute\": 0}}, {\"open\": {\"day\": 6, \"hour\": 10, \"minute\": 30}, \"close\": {\"day\": 0, \"hour\": 2, \"minute\": 0}}], \"weekdayDescriptions\": [\"Monday: 10:30 AM – 1:00 AM\", \"Tuesday: 10:30 AM – 1:00 AM\", \"Wednesday: 10:30 AM – 1:00 AM\", \"Thursday: 10:30 AM – 1:00 AM\", \"Friday: 10:30 AM – 2:00 AM\", \"Saturday: 10:30 AM – 2:00 AM\", \"Sunday: 10:30 AM – 1:00 AM\"], \"nextCloseTime\": \"2026-01-15T06:00:00Z\"}",
      "last_verified": "2026-01-15T04:33:16.332036+00:00"
    },
    {
      "id": 5188,
      "name": "CRAVE Coffee House & Bakery",
      "category": "coffee_shop",
      "address": "166 Princess St, Kingston, ON K7L 3G5, Canada",
      "latitude": 44.2317688,
      "longitude": -76.48472249999999,
      "phone": "+1 613-766-7766",
      "website": "http://www.cravecoffeehouse.ca/",
      "hours": "{\"openNow\": false, \"periods\": [{\"open\": {\"day\": 0, \"hour\": 7, \"minute\": 30}, \"close\": {\"day\": 0, \"hour\": 20, \"minute\": 0}}, {\"open\": {\"day\": 1, \"hour\": 7, \"minute\": 30}, \"close\": {\"day\": 1, \"hour\": 20, \"minute\": 0}}, {\"open\": {\"day\": 2, \"hour\": 7, \"minute\": 30}, \"close\": {\"day\": 2, \"hour\": 20, \"minute\": 0}}, {\"open\": {\"day\": 3, \"hour\": 7, \"minute\": 30}, \"close\": {\"day\": 3, \"hour\": 20, \"minute\": 0}}, {\"open\": {\"day\": 4, \"hour\": 7, \"minute\": 30}, \"close\": {\"day\": 4, \"hour\": 20, \"minute\": 0}}, {\"open\": {\"day\": 5, \"hour\": 7, \"minute\": 30}, \"close\": {\"day\": 5, \"hour\": 20, \"minute\": 0}}, {\"open\": {\"day\": 6, \"hour\": 7, \"minute\": 30}, \"close\": {\"day\": 6, \"hour\": 20, \"minute\": 0}}], \"weekdayDescriptions\": [\"Monday: 7:30 AM – 8:00 PM\", \"Tuesday: 7:30 AM – 8:00 PM\", \"Wednesday: 7:30 AM – 8:00 PM\", \"Thursday: 7:30 AM – 8:00 PM\", \"Friday: 7:30 AM – 8:00 PM\", \"Saturday: 7:30 AM – 8:00 PM\", \"Sunday: 7:30 AM – 8:00 PM\"], \"nextOpenTime\": \"2026-01-15T12:30:00Z\"}",
      "last_verified": "2026-01-15T04:33:16.334043+00:00"
    },
    {
      "id": 5181,
      "name": "Card's Bakery And Goods",
      "category": "bakery",
      "address": "115 Princess St, Kingston, ON K7L 1A8, Canada",
      "latitude": 44.231836,
      "longitude": -76.48299399999999,
      "phone": "+1 613-544-4448",
      "website": "http://www.cardsbakery.ca/",
      "hours": "{\"openNow\": false, \"periods\": [{\"open\": {\"day\": 0, \"hour\": 11, \"minute\": 0}, \"close\": {\"day\": 0, \"hour\": 16, \"minute\": 0}}, {\"open\": {\"day\": 1, \"hour\": 9, \"minute\": 0}, \"close\": {\"day\": 1, \"hour\": 16, \"minute\": 0}}, {\"open\": {\"day\": 2, \"hour\": 8, \"minute\": 0}, \"close\": {\"day\": 2, \"hour\": 17, \"minute\": 0}}, {\"open\": {\"day\": 3, \"hour\": 8, \"minute\": 0}, \"close\": {\"day\": 3, \"hour\": 17, \"minute\": 0}}, {\"open\": {\"day\": 4, \"hour\": 8, \"minute\": 0}, \"close\": {\"day\": 4, \"hour\": 17, \"minute\": 0}}, {\"open\": {\"day\": 5, \"hour\": 8, \"minute\": 0}, \"close\": {\"day\": 5, \"hour\": 17, \"minute\": 0}}, {\"open\": {\"day\": 6, \"hour\": 9, \"minute\": 0}, \"close\": {\"day\": 6, \"hour\": 17, \"minute\": 0}}], \"weekdayDescriptions\": [\"Monday: 9:00 AM – 4:00 PM\", \"Tuesday: 8:00 AM – 5:00 PM\", \"Wednesday: 8:00 AM – 5:00 PM\", \"Thursday: 8:00 AM – 5:00 PM\", \"Friday: 8:00 AM – 5:00 PM\", \"Saturday: 9:00 AM – 5:00 PM\", \"Sunday: 11:00 AM – 4:00 PM\"], \"nextOpenTime\": \"2026-01-15T13:00:00Z\"}",
      "last_verified": "2026-01-15T04:33:16.334043+00:00"
    },
    {
      "id": 5204,
      "name": "Chez Piggy Restaurant & Bar",
      "category": "restaurant",
      "address": "68 Princess St, Kingston, ON K7L 1A5, Canada",
      "latitude": 44.2311334,
      "longitude": -76.4815314,
      "phone": "+1 613-549-7673",
      "website": "http://www.chezpiggy.ca/",
      "hours": "{\"openNow\": false, \"periods\": [{\"open\": {\"day\": 0, \"hour\": 10, \"minute\": 0}, \"close\": {\"day\": 0, \"hour\": 21, \"minute\": 0}}, {\"open\": {\"day\": 1, \"hour\": 11, \"minute\": 30}, \"close\": {\"day\": 1, \"hour\": 21, \"minute\": 0}}, {\"open\": {\"day\": 2, \"hour\": 11, \"minute\": 30}, \"close\": {\"day\": 2, \"hour\": 21, \"minute\": 0}}, {\"open\": {\"day\": 3, \"hour\": 11, \"minute\": 30}, \"close\": {\"day\": 3, \"hour\": 21, \"minute\": 0}}, {\"open\": {\"day\": 4, \"hour\": 11, \"minute\": 30}, \"close\": {\"day\": 4, \"hour\": 21, \"minute\": 0}}, {\"open\": {\"day\": 5, \"hour\": 11, \"minute\": 30}, \"close\": {\"day\": 5, \"hour\": 21, \"minute\": 0}}, {\"open\": {\"day\": 6, \"hour\": 11, \"minute\": 30}, \"close\": {\"day\": 6, \"hour\": 21, \"minute\": 0}}], \"weekdayDescriptions\": [\"Monday: 11:30 AM – 9:00 PM\", \"Tuesday: 11:30 AM – 9:00 PM\", \"Wednesday: 11:30 AM – 9:00 PM\", \"Thursday: 11:30 AM – 9:00 PM\", \"Friday: 11:30 AM – 9:00 PM\", \"Saturday: 11:30 AM – 9:00 PM\", \"Sunday: 10:00 AM – 9:00 PM\"], \"nextOpenTime\": \"2026-01-15T16:30:00Z\"}",
      "last_verified": "2026-01-15T04:33:16.334043+00:00"
    },
    {
      "id": 5194,
      "name": "Coffee Way Donuts",
      "category": "donut_shop",
      "address": "472 Division St, Kingston, ON K7K 4B1, Canada",
      "latitude": 44.242320899999996,
      "longitude": -76.4953405,
      "phone": "+1 613-546-9106",
      "website": "https://www.facebook.com/coffeewaydonuts/",
      "hours": "{\"openNow\": false, \"periods\": [{\"open\": {\"day\": 0, \"hour\": 6, \"minute\": 0}, \"close\": {\"day\": 0, \"hour\": 23, \"minute\": 0}}, {\"open\": {\"day\": 1, \"hour\": 6, \"minute\": 0}, \"close\": {\"day\": 1, \"hour\": 23, \"minute\": 0}}, {\"open\": {\"day\": 2, \"hour\": 6, \"minute\": 0}, \"close\": {\"day\": 2, \"hour\": 23, \"minute\": 0}}, {\"open\": {\"day\": 3, \"hour\": 6, \"minute\": 0}, \"close\": {\"day\": 3, \"hour\": 23, \"minute\": 0}}, {\"open\": {\"day\": 4, \"hour\": 6, \"minute\": 0}, \"close\": {\"day\": 4, \"hour\": 23, \"minute\": 0}}, {\"open\": {\"day\": 5, \"hour\": 6, \"minute\": 0}, \"close\": {\"day\": 5, \"hour\": 23, \"minute\": 0}}, {\"open\": {\"day\": 6, \"hour\": 6, \"minute\": 0}, \"close\": {\"day\": 6, \"hour\": 23, \"minute\": 0}}], \"weekdayDescriptions\": [\"Monday: 6:00 AM – 11:00 PM\", \"Tuesday: 6:00 AM – 11:00 PM\", \"Wednesday: 6:00 AM – 11:00 PM\", \"Thursday: 6:00 AM – 11:00 PM\", \"Friday: 6:00 AM – 11:00 PM\", \"Saturday: 6:00 AM – 11:00 PM\", \"Sunday: 6:00 AM – 11:00 PM\"], \"nextOpenTime\": \"2026-01-15T11:00:00Z\"}",
      "last_verified": "2026-01-15T04:33:16.334043+00:00"
    },
    {
      "id": 5026,
      "name": "Community Food Resource",
      "category": "Community Food Resource",
      "address": "67a Brunswick Street, Fitzroy, 3065",
      "latitude": -37.80506174,
      "longitude": 144.9771634,
      "phone": "Robert Lorenzetto (Welfare Coordinator) Ph: 9483 1323 or 1300 147 147 Email: rlorenzetto@bsl.org.au ",
      "website": "https://www.bsl.org.au/",
      "hours": null,
      "last_verified": "2026-01-15T04:32:31.480632+00:00"
    },
    {
      "id": 5027,
      "name": "Community Food Resource",
      "category": "Community Food Resource",
      "address": "169–175 Mount Alexander Road, Flemington, 3031",
      "latitude": -37.7819022,
      "longitude": 144.9326891,
      "phone": "Don Linke Ph: 0407 411 198 Email: info@flemingtonfarmersmarket.com.au ",
      "website": "http://flemingtonfarmersmarket.com.au/",
      "hours": null,
      "last_verified": "2026-01-15T04:32:31.480632+00:00"
    },
    {
      "id": 5028,
      "name": "Community Food Resource",
      "category": "Community Food Resource",
      "address": "20 Water Road, Preston, 3072 ",
      "latitude": -37.74292773,
      "longitude": 145.0340089,
      "phone": "Customer Service 8am to 4pm, Mon to Fri Ph: 03 8673 6288 Email: info@ceresfairfood.org.au ",
      "website": "http://ceresfairfood.org.au/",
      "hours": null,
      "last_verified": "2026-01-15T04:32:31.480632+00:00"
    },
    {
      "id": 5029,
      "name": "Community Food Resource",
      "category": "Community Food Resource",
      "address": "87 Grey Street, St Kilda, 3182 ",
      "latitude": -37.86277829,
      "longitude": 144.9800828,
      "phone": "Ph: 03 9537 1166 Email: info@sacredheartmission.org",
      "website": "http://sacredheartmission.org/",
      "hours": null,
      "last_verified": "2026-01-15T04:32:31.480632+00:00"
    },
    {
      "id": 5030,
      "name": "Community Food Resource",
      "category": "Community Food Resource",
      "address": "69 Bourke Street, Melbourne, 3000 (ground floor)",
      "latitude": -37.7947776,
      "longitude": 144.9290363,
      "phone": "Ph: 03 9653 3299 or 1800 266 686",
      "website": "http://salvationarmy.org.au",
      "hours": null,
      "last_verified": "2026-01-15T04:32:31.480632+00:00"
    },
    {
      "id": 5031,
      "name": "Community Food Resource",
      "category": "Community Food Resource",
      "address": "Kensington Community Gardens, 118–128 Westbourne Road, Kensington, 3031",
      "latitude": -37.7936389,
      "longitude": 144.9207514,
      "phone": "Ph: 03 9376 1633 Email: kensington@ymca.org.au",
      "website": "http://kensington.ymca.org.au/",
      "hours": null,
      "last_verified": "2026-01-15T04:32:31.480632+00:00"
    }
  ],
  "page": 1,
  "limit": 20,
  "total": 185,
  "pages": 10
}